DSC 385 - Project 4 Report
…
New names:
Rows: 5735 Columns: 20
── Column specification
──────────────────────────────────────────────────────── Delimiter: "," chr
(8): cat1, cat2, ca, sex, swang1, gastr, meta, hema dbl (12): death, cardiohx,
chfhx, dementhx, chrpulhx, age, surv2md1, das2d3p...
ℹ Use `spec()` to retrieve the full column specification for this data. ℹ
Specify the column types or set `show_col_types = FALSE` to quiet this message.
• `` -> `...1`

We can take a quick look at the dataset and all of the variables.

dataset

# A tibble: 5,735 × 20
   cat1  cat2  ca    death cardiohx chfhx dementhx chrpulhx   age sex   surv2md1
   <fct> <fct> <fct> <fct> <fct>    <fct> <fct>    <fct>    <dbl> <fct>    <dbl>
 1 COPD  <NA>  Yes   0     0        0     0        1         70.3 Male     0.641
 2 MOSF  <NA>  No    1     1        1     0        0         78.2 Fema…    0.755
 3 MOSF  MOSF… Yes   0     0        0     0        0         46.1 Fema…    0.317
 4 ARF   <NA>  No    1     0        0     0        0         75.3 Fema…    0.441
 5 MOSF  <NA>  No    1     0        0     0        0         67.9 Male     0.437
 6 COPD  <NA>  No    0     0        1     0        1         86.1 Fema…    0.665
 7 MOSF  <NA>  Meta… 0     0        0     0        0         55.0 Male     0.339
 8 ARF   Coma  No    1     0        0     0        0         43.6 Male     0.632
 9 MOSF  <NA>  Yes   0     0        0     0        0         18.0 Fema…    0.503
10 ARF   <NA>  Yes   0     0        0     0        0         48.4 Fema…    0.669
# ℹ 5,725 more rows
# ℹ 9 more variables: das2d3pc <dbl>, wblc1 <dbl>, temp1 <dbl>, pafi1 <dbl>,
#   swang1 <fct>, wtkilo1 <dbl>, gastr <fct>, meta <fct>, hema <fct>
…
